\contentsline {section}{\numberline {1}Review of Integration}{2}{section.1}% 
\contentsline {subsection}{\numberline {1.1}The Integral}{2}{subsection.1.1}% 
\contentsline {subsection}{\numberline {1.2}Almost Everywhere}{3}{subsection.1.2}% 
\contentsline {subsection}{\numberline {1.3}Properties of the Integral}{3}{subsection.1.3}% 
\contentsline {section}{\numberline {2}Introduction to the Fourier Transform}{3}{section.2}% 
\contentsline {subsection}{\numberline {2.1}Fourier Series}{4}{subsection.2.1}% 
\contentsline {subsection}{\numberline {2.2}The Fourier Transform}{4}{subsection.2.2}% 
\contentsline {subsection}{\numberline {2.3}Schwartz Space}{4}{subsection.2.3}% 
\contentsline {subsection}{\numberline {2.4}Fourier Inversion}{6}{subsection.2.4}% 
\contentsline {subsection}{\numberline {2.5}Plancharel's Theorem}{7}{subsection.2.5}% 
