\contentsline {section}{\numberline {1}A Non-Measurable Set}{2}{section.1}% 
\contentsline {section}{\numberline {2}Measurable, but not Borel}{2}{section.2}% 
\contentsline {subsection}{\numberline {2.1}Remarks}{3}{subsection.2.1}% 
